;rafael-teste@gmail.com
Rafael Augusto;rafael-teste2@gmail.com
alessandro;alessandro@profite.com.br
;najla.ce@gmail.com
;leonardo_ms_10@hotmail.com
darc.pereir@HOTMAIL.COM;darc.pereira@hotmail.com
;leticia_14_cp@hotmail.com
;jo.sinaldo2008@hotmail.com
;junior2008md@gmail.com
;michele-pires@live.com
;medeiroscristina12@yahoo.com.br
;celiawjr@hotmail.com
;nilvanaglanerf@hotmail.com
Eronildes;eronildesvercosa@hotmail.com
;KASSIAM@BOL.COM.BR
;marciascheiter2@hotmail.com
;grgranja@hotmail.com
;thiagoassumpcao.1@gmail.com
;cid.dresch@hotmail.com
;pauloriosouza@hotmail.com.br
thaly2046@hotmail.com;thaly2046@hotmail.com
;val.dodo.1971@gmail.com
;val.dodo.1971@gmail.com
;val.dodo.1971@gmail.com
;xinithy@bol.com.br
;jaquelineximenes@yahoo.com.br
CRISTINA RAIMUNDA DA SILVA MARIN;cristinasilvamarin@outlook.com
;isagomes29@hotmail.com
;glauce-moreira@hotmail.com
;bcarleial@globo.com
;julia_gmartinez@yahoo.com.br
Jessica Menezes  ;Jessicamenezesdm@gmail.com
;brunandradelima@hotmail.com
Natália ;nataliasavi@hotmail.com
;francielikauva@gmail.com
;rubensbrito721@gmail.com
;edilainesantos13@hotmail.com
;edilainesantos.944@facebook.com
;edilaine.santos.944@facebook.com
;0000ref000.demoviana@000.monitor1.returnpath.net
;vanusa_silvasouza@yahoo.com
;vania@cartonader.com.br
;rosangelapessoa9@hotmail.com
;neidezocca@hotmail.com
;brendaa.kamilly@gmail.com
Joice;Joice.plima@hotmail.com
;alexalexalexalex@alexalex.com
alexalexalexalex2;alexalexalexalex2@alexalex.com
Época ;epoca2314232323213@epoca.com
;fernandapdf@outlook.com
;lcsda@hotmail.com
;lcsda@hotmail.com
;45454545445@45.com
Nome37;373737373@373.com
;elizabethmonteiro03@hotmail.com
;monteiro-skt@hotmail.com
ANA RODRIGUES MARTINS;ANARODRIGUESMARTINANA@HOTMAIL.COM
Mayanna Costa;mayanna.yngrindh@hotmail.com
;ELIANE.MIRSILVA@HOTMAIL.COM
;nsg2001@ig.com.br
;mariaezilda1234@hotmail.com
;danilosg@live.com
elliah;elliahp@gmail.com
;josiporfirio25@hotmail.com
;cmulhoa@hotmail.com
;saviabueno@hotmail.com
;vivi_landim@hotmail.com
MARCIA ALVES ANDRADE DA SILVA ;marciatratorsolo@gmail.com
Adriana Guimarães da Rocha Brazuna;drikarocha@gmail.com
;silvania.r.guimaraes@gmail.com
Paula Roberta;proberta2006@gmail.com
;alcione.pw@gmail.com
;aurearap@hotmail.com
;subgelson48706@gmail.com
;noely.silva@bol.com.br
;dilagalo@hotmail.com
;analucia.ribeiro@ig.com.br
;edilainesantos13@hotmail.com
;edilaine.santos.944@facebook.com
;eliza.moliveira11@gmail.com
;maria.costa.ap@hotmail.com
;sheila_apc@yahoo.com.br
;lucianesilva06@yahoo.com.br
;zeny1980_santos@hotmail.com
Digite seu nome;inesmazaro@yahoo.com.br
ines;inesmazaro@yahoo.com.br
Renato Tadeu;rtda10@hotmail.com
Bruna;s-nuna@outlook.com
Marta;martanascimento09@hotmail.com
;mirelerochaazevedo@hotmail.com
;joelmainsabralde@hotmail.com
;nlapa@cnen.gov.br
;kellyndaroots@hotmail.com
Nina Samuel;ninasapi@gmail.com
;ameliaonovais@gmail.com
;mario@profite.com.br
;m.efigenia@hotmail.com
;aeaeventos@yahoo.com.br
;cassiapereirapereira@hotmail.com
;lourdes_directaline@hotmail.com
Grá;gravini@gmail.com
;wz9@uol.com.br
;lilianlazaro80@yahoo.com
pamela;pamela_hime93@hotmail.com
;soares.uff@hotmail.com
;samanta_mju@hotmail.com
;silvanehd@brturbo.com.br
;priviscardi@gmail.com
;lene_costaa@hotmail.com
;larissaamarques@live.com
caicaracacaepesca@hotmail.com;caicaracacaepesca@hotmail.com
;caicaracacaepesca@hotmail.com
Marcelo;marcelo_pereira10@hotmail.com
;pstore.imports@gmail.com
;vitoriaevanessa@hotmail.com
;ednavalente-ick@hotmail.com
;deb.apsalles@hotmail.com
;jully_pincktec.lrj@hotmail.com
vilma;vilmapsbispo@hotmail.com
;lucas12.pjl@hotmail.com
Rayane;rayane.gaspar@gmail.con
;elizabetesantos2013@hotmail.com
;gabrielabosan@hotmail.com
;tha_saad@hotmail.com
;vidracariaourobranco@uol.com.br
eliane;eliane1965@globo.com
;hcruz@prefeitura.sp.gov.br
KEITE BOMFIM ARAUJO;keitebomfim@hotmail.com
;nayara_natielly@outlook.com
;marcos.fonseca@thebeautybox.com.br
Jane;gdjane19@hotmail.com
ROSELI;roseliggf@hotmail.com
;ess.soares@hotmail.com
;marteixeira@uai.com.br
;reislanecarvalho@hotmail.com
;danielfiguti@hotmail.com
;cristianoslv83@gmail.com
;cristianoslv83@gmail.com
;tablet.cassia@gmail.com
cfoster@lvmh.com.br;cfoster@lvmh.com.br
;Julianevictor@yahoo.com.br
celsonbobalo@gmail.com;celsonbobalo@gmail.com
Isete Ramos;isetemultimarcas@yahoo.com.br
;delaira@pop.com.br
;martafreitas2009@hotmail.com
Tania Mara;taniamedeirosx@gmail.com
;apmaiasoares@hotmail.com
LEYDIANE BATISTA PEREIRA;leydiane0906@gmail.com
;taniafandolphi@hotmail.com
;glaucialgoncalves@hotmail.com
;sanpcosta@gmail.com
;nascimentopitibull@yahoo.com.br
ronaldo lucas;ronaldolucas@oi.com.br
;luluheredia@hotmail.com
;julia-wilcensi@hotmail.com
;ssgomes71@hotmail.com
;asimao2009@gmail.com
;GILGCARDOSO@GMAIL.COM
;thidmv@gmail.com
;ozimar2@hotmail.com
Joseany Alessandra;Joseanyfofa@hotmail.com
;vivianasrolim@hotmail.com
Cristiane;cris.kluge@hotmail.com
;claumelmil@bol.com.br
;alessandrabruno100@hotmail.com
;Natalia_argentino@hotmail.com
;marialuciatofano@bol.com.br
Lana;lana_2112@yahoo.com.br
;sandra3mgomes@gmail.com
nayana;naiana.severo@hotmail.com
;sirafful@hotmail.com
;danidebatin@hotmail.com
;solangefcsantos@gmail.com
Brenno;brenno_dinardi@hotmail.com
;thiago.lopes@shift.com.br
;marileiatj@hotmail.com
;nathalialiima.nl@gmail.com
;bianca_demuenr@hotmail.com
;adrislym@yahoo.com.br
;andreadjenane@hotmail.com
;x-fran2011@hotmail.com
;evandros1989@hotmail.com
cida;c-ida666@hotmail.com
Lais;lais_batistel@hotmail.com
;pattty64custodio@gmail.com
;ainesantos13@hotmail.com
;daviquintanilha@hotmail.com
loiola;antonioloiola@hotmail.com
;claudinha_370@outlook.com
;claudinharn92@gmail.com
Carolina;carolina.nemer@gmail.com
;rosaalmeidacouto@yahoo.com.br
João Henrique;jhsalmazo@outlook.com
Ediane;edianeboh@gmail.com
;edianeboh@gmail.com
;lumt001@gmail.com
;fabiane__aquino@hotmail.com
;naiane_marttins@hotmail.com
;ivani-ssoares@hotmail.com
;lawfacul@hotmail.com
;sorimonteiro@uol.com.br
;dsantos@passion.com.br
;mozartgondim@globo.com
;anaguimaca@terra.com.br
;telmachavesfernandes@hotmail.com
;geninha_moreira@globo.com
;luananaonda@hotmail.com
;tcvarela@hotmail.com
;jaci-miranda@uol.com.br
BERNADETE PINHEIRO BRUNO;betebruno@bol.com.br
;mari.souza.c@hotmail.com
;catarine.melo@hotmail.com
Eduardo;eduardolluiz@hotmail.com
;eduardolluiz@hotmail.com
;lilamoura@gmail.com
;annahclaaudiaah@hotmail.com
;patricians29@gmail.com
;patricia3205@hotmail.com
Thais;thaisfernandes06@hotmail.com
;lucianaiume@hotmail.com
;margarete_mantana@hotmail.com
;sunobrega@globo.com
;rutinhasouza_29@hotmail.com
;gleicerayannes@gmail.com
;andressa_rodrigues1994@hotmail.com
Valeria;valeriart@bol.com.br
;antoniabrio@hotmail.com
;lenecarvalho68@hotmail.com
;vbernardes.dsg@gmail.com
Rosenir Dos Santos Oliveira;roseny.oliveira@gmail.com
vania.murari@terra.com.br;vania.murari@terra.com.br
;rose240583@hotmail.com
;andreluiz0710@gmail.com
jeannie sanches;academiademisses@yahoo.com.br
cristina lopes;macrilosi@ig.com.br
;luperciojuliodelima@gmail.com
;tel2111@yahoo.com.br
;fernandapompeo@hotmail.com
Valquiria;vce@ig.com.br
Maria Jose Coelho Alves;maria.alves@jorlan.com
;gslaia@hotmail.com
gloria leon;gloria.leon@terra.com.br
Anailze Lievore Quintão <anailzell@hotmail.com>;anailzell@hotmail.com
;fabi_decastro@hotmail.com
;elianemartins07@hotmail.com
;elainedesde1987@hotmail.com
Sirlene;sir_llene@hotmail.com
;tassararodrigues@gmail.com
zenaide;zennunes@yahoo.com.br
ninasoul70@gmail.com;ninasoul70@gmail.com
;rhserena@gmail.com
;rhserena@gmail.com
;livia@adatina.com
;rodrigo@adatina.com
;mariamorofaria@hotmail.com
;lucia.silva.10@outlook.com
igor;igor.iaso@gmail.com
telma regina de oliveira;t.regina@hotmail.com
;bel.avila@yahoo.com.br
;t.regina@hotmail.com
;choquitoo_01@hotmail.com
soraiapaferreira@hotmail.com;soraiapaferreira@hotmail.com
;bruna.andrade191@hotmail.com
Bruna;bruna.andrade191@hotmail.com
Georgia Timmermans Odebrecht de Souza;georgia_odebrecht@hotmail.com
;vanessa_melo1@hotmail.com
;deborasodre@hotmail.com.br
;ursula_sanzya@hotmail.com
;mellissamanu002@hotmail.com
;lisgalhardo@hotmail.com
;beladis1@gmail.com
;flaviacdavid@yahoo.com.br
;adrianakirsten@hotmail.com
hellen;helem_dayane@hotmail.com.br
;keplerrosana@gmail.com
;alzira29furtado@gmail.com
;roseny.oliveira@gmail.com
;enideck80@gmail.com
;danceagora@hotmail.com
Daiane Luiza;daiane.dp@gslcontabil.com.br
;betodeuschle@hotmail.com
;Alexandre.brascubas@hotmail.com
;lu_pynheiro@hotmail.com
;lu_pynheiro@hotmail.com
Sidney;mail.sidmacedo@gmail.com
;glorinha_reis@hotmail.com
;vanessa_flanders@hotmail.com
;elietelimaalencar@gmail.com
;marinasleao@hotmail.com
;felipmazza@gmAIL.COM
;anacristinamodas@yahoo.com.br
;lucia.silva.10@outlook.com
;lenacoritiana@hotmail.com
simone r rosa;lleona@ig.com.br
Roselene Maria Amaral;rose_tur@yahoo.com.br
;rototh@hotmail.com
Vera;Rovera@oi.com.br
;bentofranco@hotmail.com
;rosadalia.kitana@gmail.com
OLIVER DAVIS QUEIROZ DE MORAES;oliverchicleteiro@hotmail.com
;mariadssilva@hotmail.com
;rafaellesilvanayrafernandes@outlook.com
;paulinha_gitana@hotmail.com
;paty_ts@hotmail.com
vanessa;vanessacarvalho.16@hotmail.com
simone sivini nobrega;simonesivini@hotmail.com
;leandrob.bernardo@hotmail.com
;albanesemonica@hotmail.com
luiza;luiza_coutinho@ig.com.br
;lakyshmi@yahoo.com.br
;nathaliavalverde8@gmail.com
;elitrin@gmail.com
;deni_afon@hotmail.com
;laf.rocha@hotmail.com
;silvana.afs@hotmail.com
Carolina Mota;carolinamota210@gmail.com
Maria;mbal02@yahoo.com.br
;caiovieira.93@hotmail.com
;paulamar15@hotmail.com
;bel_cristina4012@outlook.com
Ana Ferreira da silva ;Aninha.fsilva@hotmail.com
;vanessagn_direito@hotmail.com
;larisse.soares@yahoo.com.br
roseli aparecida vicente;roselipoderosa2012@gmail.com
;rehmorais66@hotmail.com
;fernandapompeo@hotmail.com
;maisa.vendas@hotmail.com
;vmpmedeiros@ig.com.br
;acerda@hotmail.com
;privacidadeemail-compras@yahoo.com.br
;lmacedodiniz@bol.com.br
;zumagasperdoes@gmail.com
;tercilio0502@hotmail.com
;klebersansalone@hotmail.com
;doliveira184@gmail.com
;vilmamarques346@gmail.com
;naty-gatadahora@hotmail.com
;aninha_elvira@hotmail.com
;anaelvira499@gmail.com
Ivanildo;stivanildo@hotmail.com
ROZIMAR SANTOS BEZERRA SILVA;rozimarbezerra@gmail.com
;stefanis2sp@hotmail.com
Tatiane;tatievaristo@gmail.com
;a@b.com
;Suse.goes@hotmail.com
;geovanethebeast@gmail.com
;terezaolioli@gmail.com
Vanessa;vanessamello@rocketmail.com
;espeditooliveirarosinei@gmail.com
;sandravicentt@gmail.com
conceição miranda;ceicinha.bmiranda@gmail.com
;diegorodrigues@globo.com
;daianelino14@hotmail.com
;denize.santos@comunicacoes.gov.br
;marilia.merusse@shopluxo.com.br
;vivianesouza244@gmail.com
;rhserena@gmail.com
;giselle.almeida@yahoo.com.br
Renata;rhserena@gmail.com
;kerleycarvalho@hotmail.com
;zeropenha@yahoo.com.br
;janainaperegrino@gmail.com
;dayanacastro@gmail.com
;aldreyromana@hotmail.com
;borboletinhasss@hotmail.com
;m.ericca33@yahoo.com.br
;dfcdsilveira@hotmail.com
;luziapadua@hotmail.com
;annaaguiar777@gmail.com
;ligia.bedini@tvglobo.com.br
;fabianaunioeste@gmail.com
;ojana.uenf@yahoo.com.br
;daniane.vitor@br.nestle.com
;lucfatbez@hotmail.com
carolgomes@hotmail.com;carolgomes@hotmail.com
;sjrj79@gmail.com
;fagner190@hotmail.com
Mélian de Paula;meliante.Cris@hotmail.com
;peformace@hotmail.com
